…
data("WaffleDivorce")
lds_divorce <- WaffleDivorce %>%
  as_tibble() %>%
  select(Location, Divorce, Marriage, MedianAgeMarriage) %>%
  left_join(select(lds, state, lds_per_capita),
            by = c("Location" = "state")) %>%
  mutate(lds_per_capita = log(lds_per_capita)) %>%
  mutate(across(where(is.numeric), standardize)) %>% 
  filter(!is.na(lds_per_capita))

lds_divorce
#> # A tibble: 49 × 5
#>    Location    Divorce Marriage MedianAgeMarriage lds_per_capita
#>    <chr>         <dbl>    <dbl>             <dbl>          <dbl>
#>  1 Alabama       1.65    0.0226            -0.606         -0.423
#>  2 Alaska        1.54    1.55              -0.687          1.21 
#>  3 Arizona       0.611   0.0490            -0.204          1.42 
#>  4 Arkansas      2.09    1.66              -1.41          -0.123
#>  5 California   -0.927  -0.267              0.600          0.409
#>  6 Colorado      1.05    0.892             -0.285          0.671
#>  7 Connecticut  -1.64   -0.794              1.24          -0.909
#>  8 Delaware     -0.433   0.786              0.439         -0.693
#>  9 Florida      -0.652  -0.820              0.278         -0.466
#> 10 Georgia       0.995   0.523             -0.124         -0.375
#> # … with 39 more rows
```
…
First, let's load the data and standardize the variables.


```r
data(foxes)

fox_dat <- foxes %>%
  as_tibble() %>%
  select(area, avgfood, weight, groupsize) %>%
  mutate(across(everything(), standardize))

fox_dat
#> # A tibble: 116 × 4
#>      area avgfood    weight groupsize
#>     <dbl>   <dbl>     <dbl>     <dbl>
#>  1 -2.24  -1.92    0.414       -1.52 
#>  2 -2.24  -1.92   -1.43        -1.52 
#>  3 -1.21  -1.12    0.676       -1.52 
#>  4 -1.21  -1.12    1.30        -1.52 
#>  5 -1.13  -1.32    1.12        -1.52 
#>  6 -1.13  -1.32   -1.08        -1.52 
#>  7 -2.02  -1.52    0.000291    -1.52 
#>  8 -2.02  -1.52   -0.371       -1.52 
#>  9  0.658 -0.0591  1.35        -0.874
#> 10  0.658 -0.0591  0.896       -0.874
#> # … with 106 more rows
```
…
```r
set.seed(2010)

students <- 500

ed_dat <- tibble(k = rnorm(students, mean = 0, sd = 2),
                 d = sample(0L:1L, students, replace = TRUE),
                 i = rnorm(students, mean = 1 + 3 * d),
                 p = k + rnorm(students, 0.8 * i)) %>%
  mutate(across(where(is.double), standardize))

ed_dat
#> # A tibble: 500 × 4
#>          k     d        i      p
#>      <dbl> <int>    <dbl>  <dbl>
#>  1 -0.472      1  1.61     1.05 
#>  2  0.0678     1  0.986    0.973
#>  3  1.09       1  1.05     1.42 
#>  4  0.290      0 -1.60    -0.385
#>  5 -0.131      1  1.28     0.731
#>  6  1.54       0 -0.00907  1.11 
#>  7 -0.474      0 -1.35    -0.794
#>  8 -1.47       1  0.345   -0.425
#>  9  0.735      0 -0.559    0.439
#> 10  0.695      0 -0.372    0.155
#> # … with 490 more rows
```
…
Looking at our results we can see for each replication, the absolute value of the difference between the mean of the posterior and the true value (0.3; `abs_error`), as well as the width of the 89% compatibility interval.


```r
sim_results
#> # A tibble: 700 × 4
#>    sample_size replication abs_error int_width
#>          <dbl>       <int>     <dbl>     <dbl>
#>  1          10           1    0.206      0.774
#>  2          10           2    0.265      1.08 
#>  3          10           3    0.0771     0.907
#>  4          10           4    0.378      0.954
#>  5          10           5    0.109      0.991
#>  6          10           6    0.0423     0.970
#>  7          10           7    0.460      0.764
#>  8          10           8    0.0568     0.999
#>  9          10           9    0.0854     0.706
#> 10          10          10    0.0566     1.01 
#> # … with 690 more rows
```
…
