…
<img src="05-glm_files/figure-html/w5h4-3-1.png" width="80%" style="display: block; margin: auto;" />

If we want to close the backdoor path, we need to condition on fighter ability. Unfortunately we don't have ability estimates in our data. There are ways we could estimate this directly from the data using something like a [Bradley-Terry]() model or [Elo]() ratings, but we only have a limited number of matches for each of our fighters. The most matches we have for any one fighter is 5. This will make it hard to get reliable estimates of fighter ability with methods we've learned so far. This is prime case for multilevel models, but that will come in future weeks.


```r
data(UFClefties)

tibble(fighter = c(UFClefties$fighter1, UFClefties$fighter2)) %>% 
  count(fighter, sort = TRUE)
#> # A tibble: 244 × 2
#>    fighter     n
#>      <int> <int>
#>  1     123     5
#>  2     232     5
#>  3      19     4
#>  4      58     4
#>  5      62     4
#>  6      63     4
#>  7      71     4
#>  8      78     4
#>  9     113     4
#> 10     175     4
#> # … with 234 more rows
```
