Week 2: Linear Models & Causal Inference | Statistical Rethinking: Solutions (2nd Edition)
…
The first thing we need to do is convert the individual height measures into increments in height. This is straightforward using dplyr::lag().

increments <- Oxboys %>% 
  group_by(Subject) %>% 
  mutate(previous_height = lag(height),
         change = height - previous_height) %>% 
  filter(!is.na(change)) %>% 
  ungroup()

increments
#> # A tibble: 208 × 6
#>    Subject     age height Occasion previous_height change
#>      <int>   <dbl>  <dbl>    <int>           <dbl>  <dbl>
#>  1       1 -0.748    143.        2            140.  2.90 
#>  2       1 -0.463    145.        3            143.  1.40 
#>  3       1 -0.164    147.        4            145.  2.30 
#>  4       1 -0.0027   148.        5            147.  0.600
#>  5       1  0.247    150.        6            148.  2.5  
#>  6       1  0.556    152.        7            150.  1.5  
#>  7       1  0.778    153.        8            152.  1.60 
#>  8       1  0.994    156.        9            153.  2.5  
#>  9       2 -0.748    139.        2            137.  2.20 
#> 10       2 -0.463    140.        3            139.  1    
#> # … with 198 more rows
…
