Week 4: Overfitting / MCMC | Statistical Rethinking: Solutions (2nd Edition)
…
data(nettle)

nettle <- nettle %>%
  as_tibble() %>%
  mutate(lang_per_cap = num.lang / k.pop,
         log_lang_per_cap = log(lang_per_cap),
         log_area = log(area),
         lang_per_cap_std = standardize(log_lang_per_cap),
         area_std = standardize(log_area),
         mean_growing_std = standardize(mean.growing.season),
         sd_growing_std = standardize(sd.growing.season))

nettle
#> # A tibble: 74 × 14
#>    country num.lang   area  k.pop num.stations mean.growing.se… sd.growing.seas…
#>    <fct>      <int>  <int>  <int>        <int>            <dbl>            <dbl>
#>  1 Algeria       18 2.38e6  25660          102             6.6              2.29
#>  2 Angola        42 1.25e6  10303           50             6.22             1.87
#>  3 Austra…      234 7.71e6  17336          134             6                4.17
#>  4 Bangla…       37 1.44e5 118745           20             7.4              0.73
#>  5 Benin         52 1.13e5   4889            7             7.14             0.99
#>  6 Bolivia       38 1.10e6   7612           48             6.92             2.5 
#>  7 Botswa…       27 5.82e5   1348           10             4.6              1.69
#>  8 Brazil       209 8.51e6 153322          245             9.71             5.87
#>  9 Burkin…       75 2.74e5   9242            6             5.17             1.07
#> 10 CAR           94 6.23e5   3127           13             8.08             1.21
#> # … with 64 more rows, and 7 more variables: lang_per_cap <dbl>,
#> #   log_lang_per_cap <dbl>, log_area <dbl>, lang_per_cap_std <dbl>,
#> #   area_std <dbl>, mean_growing_std <dbl>, sd_growing_std <dbl>
…
